comid	Co-Amoxiclav	Ceftriaxone	Ceftazidime	Ciprofloxacin	Gentamicin	Meropenem
ERR276992	1	1	1	1	1	0
ERR276993	1	1	1	1	1	0
ERR277018	1	1	0	0	1	0
ERR277004	1	1	1	1	0	0
ERR277021	1	0	0	1	0	0
ERR277005	1	1	1	1	0	0
ERR277012	1	1	0	1	0	0
ERR277013	1	1	0	1	0	0
ERR276990	1	1	2	0	2	0
ERR276994	1	1	1	1	1	0
ERR276995	1	1	1	1	1	0
ERR277042	0	0	0	0	0	0
ERR277009	1	1	1	0	0	0
ERR277006	1	1	1	2	0	0
ERR277019	0	1	0	0	0	0
ERR276991	2	1	2	0	0	0
ERR277014	1	1	0	1	0	0
ERR276996	1	1	1	1	1	0
ERR276997	1	1	1	1	1	0
ERR276998	1	1	1	1	1	0
ERR277011	1	1	2	1	0	0
ERR276999	1	1	1	1	1	0
ERR277000	1	1	1	1	1	0
ERR277015	1	1	0	1	0	0
ERR277022	0	0	0	1	0	0
ERR277001	1	1	1	1	1	0
ERR277002	1	1	1	1	1	0
ERR277016	1	1	0	1	0	0
ERR277008	1	1	0	1	0	0
ERR277007	1	1	1	0	1	0
ERR277017	1	1	0	1	0	0
ERR277010	1	2	0	1	0	0
ERR277025	1	0	0	0	0	0
ERR277039	2	0	0	0	0	0
ERR277043	0	0	0	0	0	0
ERR277044	0	0	0	0	0	0
ERR277045	0	0	0	0	0	0
ERR277023	1	0	0	0	0	0
ERR277046	0	0	0	0	0	0
ERR277026	1	0	0	0	0	0
ERR277047	0	0	0	0	0	0
ERR277048	0	0	0	0	0	0
ERR277041	0	0	0	0	0	0
ERR277040	0	0	0	0	0	0
ERR277027	1	0	0	0	0	0
ERR277028	1	0	0	0	0	0
ERR277037	2	0	0	0	0	0
ERR277049	0	0	0	0	0	0
ERR277050	0	0	0	0	0	0
ERR277020	1	0	0	0	0	0
ERR277051	0	0	0	0	0	0
ERR277036	2	0	0	0	0	0
ERR277052	0	0	0	0	0	0
ERR277053	0	0	0	0	0	0
ERR277054	0	0	0	0	0	0
ERR277029	1	0	0	0	0	0
ERR277055	0	0	0	0	0	0
ERR277056	0	0	0	0	0	0
ERR277038	2	0	0	0	0	0
ERR277030	1	0	0	0	0	0
ERR277031	1	0	0	0	0	0
ERR277032	1	0	0	0	0	0
ERR277024	1	0	0	0	0	0
ERR277057	0	0	0	0	0	0
ERR277033	1	0	0	0	0	0
ERR277058	0	0	0	0	0	0
ERR277059	0	0	0	0	0	0
ERR277060	0	0	0	0	0	0
ERR277061	0	0	0	0	0	0
ERR277062	0	0	0	0	0	0
ERR277034	1	0	0	0	0	0
ERR277035	1	0	0	0	0	0
ERR277063	0	0	0	0	0	0
ERR277003	1	1	1	1	1	0
ERR276921	0	0	0	0	0	0
ERR276922	0	0	0	0	0	0
ERR276923	0	0	0	0	0	0
ERR276924	0	0	0	0	0	0
ERR276925	1	0	0	0	0	0
ERR276926	0	0	0	0	0	0
ERR276927	0	0	0	0	0	0
ERR276928	0	0	0	1	0	0
ERR276929	0	0	0	0	0	0
ERR276930	0	0	0	1	0	0
ERR276931	0	0	0	0	0	0
ERR276932	0	0	0	0	0	0
ERR276933	0	0	0	0	0	0
ERR276934	0	0	0	0	0	0
ERR276935	0	0	0	0	0	0
ERR276936	0	0	0	0	0	0
ERR276937	0	0	0	0	1	0
ERR276938	0	0	0	0	0	0
ERR276939	0	0	0	0	0	0
ERR276940	1	1	1	0	2	0
ERR276941	0	0	0	0	0	0
ERR276942	2	1	1	0	1	0
ERR276943	1	1	1	1	1	0
ERR276944	1	1	1	1	1	2
ERR276945	1	1	1	1	1	0
ERR276946	1	1	1	1	1	0
ERR276947	1	1	1	1	1	0
ERR276948	1	1	1	0	0	0
ERR276949	1	0	0	0	0	0
ERR276950	2	1	1	1	1	0
ERR276951	1	1	1	0	1	0
ERR276952	1	1	1	1	1	0
ERR276953	1	1	1	1	2	0
ERR276954	1	1	1	1	1	0
ERR276955	1	1	1	1	1	0
ERR276956	1	1	1	1	1	0
ERR276957	1	1	1	1	1	0
ERR276958	1	1	1	2	0	0
ERR276959	1	1	1	1	1	0
ERR276960	1	1	1	1	0	0
ERR276961	1	1	1	1	1	0
ERR276962	1	1	1	1	1	0
ERR276963	1	1	1	1	1	0
ERR276964	1	1	1	1	1	0
ERR276965	1	1	1	1	1	0
ERR276966	1	1	1	1	1	0
ERR276967	1	1	1	1	1	0
ERR276968	0	0	0	0	0	0
ERR276969	0	0	0	0	0	0
ERR276970	0	0	0	0	0	0
ERR276971	0	0	0	0	0	0
ERR276972	0	0	0	0	0	0
ERR276973	0	0	0	0	0	0
ERR276974	0	0	0	0	0	0
ERR276975	0	0	0	0	0	0
ERR276976	0	0	0	0	0	0
ERR276977	0	0	0	0	0	0
ERR276978	0	0	0	0	0	0
ERR276979	0	0	0	0	0	0
ERR276980	0	0	0	0	0	0
ERR276981	0	0	0	0	0	0
ERR276982	0	0	0	0	0	0
ERR276983	0	0	0	0	0	0
ERR276984	0	0	0	0	0	0
ERR276985	1	0	0	1	0	0
ERR276986	0	0	0	0	0	0
ERR276987	0	0	0	0	0	0
ERR276988	0	0	0	0	0	0
ERR276989	0	0	0	2	0	0
